NetID User Guide
…
## 
## -- Column specification --------------------------------------------------------
## cols(
##   accession = col_character(),
##   iupac_name = col_character(),
##   name = col_character(),
##   SMILES = col_character(),
##   status = col_character(),
##   formula = col_character(),
##   mass = col_double(),
##   rdbe = col_double(),
##   category = col_character()
## )

## # A tibble: 114,014 x 9
##    accession  iupac_name     name  SMILES    status formula  mass  rdbe category
##    <chr>      <chr>          <chr> <chr>     <chr>  <chr>   <dbl> <dbl> <chr>   
##  1 HMDB00000~ (2S)-2-amino-~ 1-Me~ CN1C=NC(~ quant~ C7H11N~ 169.      4 Metabol~
##  2 HMDB00000~ propane-1,3-d~ 1,3-~ NCCCN     quant~ C3H10N2  74.1     0 Metabol~
##  3 HMDB00000~ 2-oxobutanoic~ 2-Ke~ CCC(=O)C~ quant~ C4H6O3  102.      2 Metabol~
##  4 HMDB00000~ 2-hydroxybuta~ 2-Hy~ CCC(O)C(~ quant~ C4H8O3  104.      1 Metabol~
##  5 HMDB00000~ (1S,10R,11S,1~ 2-Me~ [H][C@@]~ quant~ C19H24~ 300.      8 Metabol~
##  6 HMDB00000~ (3R)-3-hydrox~ (R)-~ C[C@@H](~ quant~ C4H8O3  104.      1 Metabol~
##  7 HMDB00000~ 1-[(2R,4S,5R)~ Deox~ OC[C@H]1~ quant~ C9H12N~ 228.      5 Metabol~
##  8 HMDB00000~ 4-amino-1-[(2~ Deox~ NC1=NC(=~ quant~ C9H13N~ 227.      5 Metabol~
##  9 HMDB00000~ (1S,2R,10R,11~ Cort~ [H][C@@]~ quant~ C21H30~ 346.      7 Metabol~
## 10 HMDB00000~ (1S,2R,10S,11~ Deox~ [H][C@@]~ quant~ C21H30~ 330.      7 Metabol~
## # ... with 114,004 more rows
…
read_csv("../../dependent/empirical_rules.csv")

## 
## -- Column specification --------------------------------------------------------
## cols(
##   category = col_character(),
##   name = col_character(),
##   formula = col_character(),
##   mass = col_double(),
##   direction = col_double(),
##   rdbe = col_double(),
##   note = col_character()
## )

## # A tibble: 84 x 7
##    category     name  formula    mass direction  rdbe note             
##    <chr>        <chr> <chr>     <dbl>     <dbl> <dbl> <chr>            
##  1 Biotransform O-HN  O1N-1H-1  0.984         0     0 Deamination      
##  2 Biotransform NH3-O N1H3O-1   1.03          0    -1 Transamination   
##  3 Biotransform H2    H2        2.02          0    -1 Hydrogenation    
##  4 Biotransform CH2   C1H2     14.0           0     0 Methylation      
##  5 Biotransform NH    N1H1     15.0           0     0 Amination        
##  6 Biotransform O     O1       16.0           0     0 Hydroxylation    
##  7 Biotransform N1H3  N1H3     17.0           0    -1 Amination (+NH3) 
##  8 Biotransform H2O   H2O1     18.0           0    -1 Hydration        
##  9 Biotransform CO    C1O1     28.0           0     1 Formylation (+CO)
## 10 Biotransform C2H4  C2H4     28.0           0     0 Beta oxidation   
## # ... with 74 more rows
…
